<?xml version="1.0" encoding="UTF-8"?>
<svg width="177px" height="177px" viewBox="0 0 177 177" version="1.1" xmlns="http://www.w3.org/2000/svg" xmlns:xlink="http://www.w3.org/1999/xlink">
    <!-- Generator: Sketch 42 (36781) - http://www.bohemiancoding.com/sketch -->
    <title>icon</title>
    <desc>Created with Sketch.</desc>
    <defs></defs>
    <g id="Page-1" stroke="none" stroke-width="1" fill="none" fill-rule="evenodd">
        <g id="Artboard" transform="translate(-465.000000, -651.000000)" fill="#2EDDA4">
            <g id="full-icon" transform="translate(465.000000, 651.000000)">
                <g id="icon">
                    <circle id="Oval" cx="163.789474" cy="162.789474" r="13.1578947"></circle>
                    <path d="M146.042105,0.621052632 C149.578965,0.621052632 153.115772,1.08420589 156.652632,2.01052632 C160.189491,2.93684674 163.347355,4.41051621 166.126316,6.43157895 C168.905277,8.45264168 171.136834,10.9368274 172.821053,13.8842105 C174.505272,16.8315937 175.347368,20.3262956 175.347368,24.3684211 C175.347368,29.9263436 174.421062,35.4420779 172.568421,40.9157895 C170.71578,46.3895011 167.852651,51.0631385 163.978947,54.9368421 C158.589447,60.3263427 152.778979,65.3789238 146.547368,70.0947368 C140.315758,74.8105499 133.915822,79.1894535 127.347368,83.2315789 C123.473665,81.0420943 119.600019,79.1052716 115.726316,77.4210526 C111.852612,75.7368337 108.063176,73.9684303 104.357895,72.1157895 C108.063176,68.9157735 112.399975,65.6315958 117.368421,62.2631579 C122.336867,58.89472 127.178924,55.4000181 131.894737,51.7789474 C136.61055,48.1578766 140.905244,44.2842312 144.778947,40.1578947 C148.652651,36.0315583 151.347361,31.5263402 152.863158,26.6421053 C149.999986,25.6315739 147.052647,25.1263158 144.021053,25.1263158 C140.147349,25.1263158 135.97897,25.6736787 131.515789,26.7684211 C127.052609,27.8631634 122.673706,29.294728 118.378947,31.0631579 C114.084189,32.8315878 109.91581,34.8105154 105.873684,37 C101.831559,39.1894846 98.294752,41.3789364 95.2631579,43.5684211 C93.7473608,44.7473743 92.0631672,46.2631486 90.2105263,48.1157895 C88.3578855,49.9684303 86.5894821,52.0315676 84.9052632,54.3052632 C83.2210442,56.5789587 81.8315844,58.8947251 80.7368421,61.2526316 C79.6420998,63.6105381 79.0947368,65.7999899 79.0947368,67.8210526 C79.0947368,71.3579124 79.9368337,74.5578804 81.6210526,77.4210526 C83.3052716,80.2842248 85.1578846,82.9368299 87.1789474,85.3789474 C89.2000101,87.8210648 91.094728,90.1368312 92.8631579,92.3263158 C94.6315878,94.5158004 95.5157895,96.7052522 95.5157895,98.8947368 C95.5157895,100.747378 94.9263217,102.642096 93.7473684,104.578947 C92.5684152,106.515799 91.3052699,108.073678 89.9578947,109.252632 C87.0947225,111.610538 83.9368594,113.8842 80.4842105,116.073684 C77.0315617,118.263169 73.7052792,120.368411 70.5052632,122.389474 C63.4315436,127.105287 56.4421398,131.736819 49.5368421,136.284211 C42.6315444,140.831602 35.81056,145.547344 29.0736842,150.431579 C46.9264051,150.600001 64.7788581,150.642106 82.6315789,150.557895 C100.4843,150.473684 118.336753,150.26316 136.189474,149.926316 C135.178942,154.305285 133.410539,158.43156 130.884211,162.305263 C128.357882,166.178967 125.747382,169.799983 123.052632,173.168421 C121.705256,174.85264 119.852643,175.778947 117.494737,175.947368 C115.13683,176.11579 112.947379,176.2 110.926316,176.2 L30.0842105,175.694737 C26.5473507,175.694737 23.0526488,175.400003 19.6,174.810526 C16.1473512,174.22105 12.989488,173.168429 10.1263158,171.652632 C7.26314358,170.136835 4.94737726,168.031592 3.17894737,165.336842 C1.41051747,162.642092 0.526315789,159.189495 0.526315789,154.978947 C0.526315789,152.789463 0.821049684,150.431592 1.41052632,147.905263 C2.00000295,145.378935 2.79999495,143.189483 3.81052632,141.336842 C5.32632337,138.642092 8.69471074,135.105285 13.9157895,130.726316 C19.1368682,126.347347 24.8210219,121.842128 30.9684211,117.210526 C37.1158202,112.578924 43.1789175,108.242125 49.1578947,104.2 C55.136872,100.157875 59.6420901,97.1263259 62.6736842,95.1052632 C61.4947309,92.0736691 60.3157954,89.5473785 59.1368421,87.5263158 C57.9578888,85.5052531 56.9473726,83.5684303 56.1052632,81.7157895 C55.2631537,79.8631486 54.5894762,77.7579065 54.0842105,75.4 C53.5789448,73.0420935 53.3263158,69.9263352 53.3263158,66.0526316 C53.3263158,59.4841777 54.8420901,53.2526611 57.8736842,47.3578947 C60.9052783,41.4631284 64.9052383,36.1158135 69.8736842,31.3157895 C74.8421301,26.5157655 80.5262838,22.2210716 86.9263158,18.4315789 C93.3263478,14.6420863 99.9789128,11.4000135 106.884211,8.70526316 C113.789508,6.01051284 120.610493,3.98948042 127.347368,2.64210526 C134.084244,1.29473011 140.315761,0.621052632 146.042105,0.621052632 Z" id="E"></path>
                </g>
            </g>
        </g>
    </g>
</svg>